﻿{
  "FacturaFixedDataConfig": {
    "Clave": "50601011600310167237800100001010000000001199999999"
  },
  "HaciendaClientConfig": {
    "ClientId": "api-stag",
    "Username": "cpf-01-1336-0737@stag.comprobanteselectronicos.go.cr",
    "Password": "(]$1V&]%D#Zr]u]BiG/x",
    "AuthorizationTokenUri": "https://idp.comprobanteselectronicos.go.cr/auth/realms/rut-stag/protocol/openid-connect/token",
    "ApiBaseUri": "https://api.comprobanteselectronicos.go.cr",
    "FixedApiPath": "/recepcion-sandbox/v1"
  }
}